Write a pseudocode for exhaustive enumeration variant of guess and check.

Ans: 


def guessandcheck(criteria):
  for a in range(...):
    for b in range(...):
      for c in range(...):
        ...
          if statisfies_criteria(a,b,c, ..., criteria):
            return a,b,c,...
